{
  "name": "Donphan",
  "nationalPokedexNumber": 232,
  "primaryType": "ground",
  "abilities": [
    "sturdy",
    "h:sandveil"
  ],
  "baseStats": {
    "hp": 90,
    "attack": 120,
    "defence": 120,
    "special_attack": 60,
    "special_defence": 60,
    "speed": 50
  },
  "catchRate": 60,
  "maleRatio": 0.5,
  "shoulderMountable": false,
  "baseExperienceYield": 175,
  "experienceGroup": "medium_fast",
  "eggCycles": 20,
  "eggGroups": [
    "field"
  ],
  "moves": [
    "1:bulldoze",
    "1:defensecurl",
    "1:firefang",
    "1:flail",
    "1:furyattack",
    "1:growl",
    "1:hornattack",
    "1:odorsleuth",
    "1:thunderfang",
    "6:rapidspin",
    "10:rollout",
    "15:assurance",
    "19:knockoff",
    "24:slam",
    "30:magnitude",
    "30:stompingtantrum",
    "37:scaryface",
    "43:earthquake",
    "50:gigaimpact",
    "tm:attract",
    "tm:bodypress",
    "tm:bodyslam",
    "tm:brutalswing",
    "tm:bulldoze",
    "tm:captivate",
    "tm:charm",
    "tm:confide",
    "tm:dig",
    "tm:doubleteam",
    "tm:earthpower",
    "tm:earthquake",
    "tm:echoedvoice",
    "tm:encore",
    "tm:endure",
    "tm:facade",
    "tm:firefang",
    "tm:frustration",
    "tm:gigaimpact",
    "tm:gunkshot",
    "tm:gyroball",
    "tm:heavyslam",
    "tm:helpinghand",
    "tm:hiddenpower",
    "tm:hyperbeam",
    "tm:hypervoice",
    "tm:icefang",
    "tm:icespinner",
    "tm:irondefense",
    "tm:ironhead",
    "tm:irontail",
    "tm:mudshot",
    "tm:mudslap",
    "tm:naturalgift",
    "tm:playrough",
    "tm:poisonjab",
    "tm:protect",
    "tm:raindance",
    "tm:rest",
    "tm:return",
    "tm:roar",
    "tm:rockpolish",
    "tm:rockslide",
    "tm:rocksmash",
    "tm:rocktomb",
    "tm:round",
    "tm:sandstorm",
    "tm:scaryface",
    "tm:secretpower",
    "tm:seedbomb",
    "tm:sleeptalk",
    "tm:smartstrike",
    "tm:stealthrock",
    "tm:stompingtantrum",
    "tm:stoneedge",
    "tm:strength",
    "tm:substitute",
    "tm:sunnyday",
    "tm:swagger",
    "tm:takedown",
    "tm:terablast",
    "tm:thief",
    "tm:thunderfang",
    "tm:toxic",
    "tm:trailblaze",
    "tutor:ancientpower",
    "tutor:attract",
    "tutor:block",
    "tutor:bodyslam",
    "tutor:bounce",
    "tutor:counter",
    "tutor:curse",
    "tutor:defensecurl",
    "tutor:doubleedge",
    "tutor:doubleteam",
    "tutor:earthpower",
    "tutor:earthquake",
    "tutor:endeavor",
    "tutor:endure",
    "tutor:flail",
    "tutor:frustration",
    "tutor:furyattack",
    "tutor:growl",
    "tutor:gunkshot",
    "tutor:headbutt",
    "tutor:hiddenpower",
    "tutor:hornattack",
    "tutor:hyperbeam",
    "tutor:hypervoice",
    "tutor:irondefense",
    "tutor:irontail",
    "tutor:knockoff",
    "tutor:lastresort",
    "tutor:mimic",
    "tutor:mudslap",
    "tutor:protect",
    "tutor:rapidspin",
    "tutor:rest",
    "tutor:return",
    "tutor:roar",
    "tutor:rockslide",
    "tutor:rocksmash",
    "tutor:rollout",
    "tutor:sandstorm",
    "tutor:seedbomb",
    "tutor:sleeptalk",
    "tutor:snore",
    "tutor:stealthrock",
    "tutor:stompingtantrum",
    "tutor:strength",
    "tutor:substitute",
    "tutor:sunnyday",
    "tutor:superpower",
    "tutor:swagger",
    "tutor:toxic"
  ],
  "labels": [
    "gen2"
  ],
  "pokedex": [
    "cobblemon.species.donphan.desc"
  ],
  "preEvolution": "phanpy",
  "evolutions": [],
  "baseScale": 1,
  "hitbox": {
    "width": 1,
    "height": 1,
    "fixed": false
  },
  "baseFriendship": 70,
  "evYield": {
    "hp": 0,
    "attack": 1,
    "defence": 1,
    "special_attack": 0,
    "special_defence": 0,
    "speed": 0
  },
  "height": 11,
  "weight": 1200,
  "aspects": [],
  "cannotDynamax": false
}