{
  "name": "Sudowoodo",
  "nationalPokedexNumber": 185,
  "primaryType": "rock",
  "abilities": [
    "sturdy",
    "rockhead",
    "h:rattled"
  ],
  "baseStats": {
    "hp": 70,
    "attack": 100,
    "defence": 115,
    "special_attack": 30,
    "special_defence": 65,
    "speed": 30
  },
  "catchRate": 65,
  "maleRatio": 0.5,
  "shoulderMountable": false,
  "baseExperienceYield": 144,
  "experienceGroup": "medium_fast",
  "eggCycles": 20,
  "eggGroups": [
    "mineral"
  ],
  "moves": [
    "1:copycat",
    "1:faketears",
    "1:flail",
    "1:hammerarm",
    "1:rockthrow",
    "1:slam",
    "1:stoneedge",
    "1:woodhammer",
    "12:block",
    "16:mimic",
    "19:feintattack",
    "20:rocktomb",
    "24:tearfullook",
    "28:suckerpunch",
    "32:rockslide",
    "36:lowkick",
    "40:counter",
    "44:doubleedge",
    "48:headsmash",
    "egg:curse",
    "egg:defensecurl",
    "egg:endure",
    "egg:harden",
    "egg:headbutt",
    "egg:rockpolish",
    "egg:rollout",
    "egg:sandtomb",
    "egg:selfdestruct",
    "egg:stealthrock",
    "tm:attract",
    "tm:bodypress",
    "tm:bodyslam",
    "tm:brickbreak",
    "tm:bulldoze",
    "tm:calmmind",
    "tm:captivate",
    "tm:confide",
    "tm:dig",
    "tm:doubleteam",
    "tm:drainpunch",
    "tm:earthpower",
    "tm:earthquake",
    "tm:endure",
    "tm:explosion",
    "tm:facade",
    "tm:faketears",
    "tm:firepunch",
    "tm:fling",
    "tm:focuspunch",
    "tm:foulplay",
    "tm:frustration",
    "tm:gigaimpact",
    "tm:grassknot",
    "tm:helpinghand",
    "tm:hiddenpower",
    "tm:hyperbeam",
    "tm:icepunch",
    "tm:irondefense",
    "tm:lowkick",
    "tm:lowsweep",
    "tm:megakick",
    "tm:megapunch",
    "tm:mudshot",
    "tm:mudslap",
    "tm:naturalgift",
    "tm:naturepower",
    "tm:powergem",
    "tm:poweruppunch",
    "tm:protect",
    "tm:psychup",
    "tm:rest",
    "tm:return",
    "tm:rockblast",
    "tm:rockpolish",
    "tm:rockslide",
    "tm:rocksmash",
    "tm:rocktomb",
    "tm:round",
    "tm:sandstorm",
    "tm:sandtomb",
    "tm:secretpower",
    "tm:selfdestruct",
    "tm:sleeptalk",
    "tm:smackdown",
    "tm:snore",
    "tm:spikes",
    "tm:stealthrock",
    "tm:stompingtantrum",
    "tm:stoneedge",
    "tm:strength",
    "tm:substitute",
    "tm:sunnyday",
    "tm:swagger",
    "tm:takedown",
    "tm:taunt",
    "tm:terablast",
    "tm:thief",
    "tm:thunderpunch",
    "tm:torment",
    "tm:toxic",
    "tm:trailblaze",
    "tm:uproar",
    "tutor:afteryou",
    "tutor:attract",
    "tutor:block",
    "tutor:bodyslam",
    "tutor:counter",
    "tutor:covet",
    "tutor:curse",
    "tutor:defensecurl",
    "tutor:dig",
    "tutor:doubleedge",
    "tutor:doubleteam",
    "tutor:dynamicpunch",
    "tutor:earthpower",
    "tutor:earthquake",
    "tutor:endure",
    "tutor:explosion",
    "tutor:feintattack",
    "tutor:firepunch",
    "tutor:flail",
    "tutor:focuspunch",
    "tutor:foulplay",
    "tutor:frustration",
    "tutor:headbutt",
    "tutor:helpinghand",
    "tutor:hiddenpower",
    "tutor:icepunch",
    "tutor:lowkick",
    "tutor:megakick",
    "tutor:megapunch",
    "tutor:meteorbeam",
    "tutor:mimic",
    "tutor:mudslap",
    "tutor:protect",
    "tutor:psychup",
    "tutor:rest",
    "tutor:return",
    "tutor:rockslide",
    "tutor:rocksmash",
    "tutor:rockthrow",
    "tutor:roleplay",
    "tutor:rollout",
    "tutor:sandstorm",
    "tutor:seismictoss",
    "tutor:selfdestruct",
    "tutor:slam",
    "tutor:sleeptalk",
    "tutor:snore",
    "tutor:stealthrock",
    "tutor:stompingtantrum",
    "tutor:strength",
    "tutor:substitute",
    "tutor:suckerpunch",
    "tutor:sunnyday",
    "tutor:swagger",
    "tutor:thief",
    "tutor:thunderpunch",
    "tutor:toxic"
  ],
  "labels": [
    "gen2"
  ],
  "pokedex": [
    "cobblemon.species.sudowoodo.desc"
  ],
  "preEvolution": "bonsly",
  "evolutions": [],
  "baseScale": 1,
  "hitbox": {
    "width": 1,
    "height": 1,
    "fixed": false
  },
  "baseFriendship": 50,
  "evYield": {
    "hp": 0,
    "attack": 0,
    "defence": 2,
    "special_attack": 0,
    "special_defence": 0,
    "speed": 0
  },
  "height": 12,
  "weight": 380,
  "aspects": [],
  "cannotDynamax": false
}