{
  "name": "Ursaring",
  "nationalPokedexNumber": 217,
  "primaryType": "normal",
  "abilities": [
    "guts",
    "quickfeet",
    "h:unnerve"
  ],
  "baseStats": {
    "hp": 90,
    "attack": 130,
    "defence": 75,
    "special_attack": 75,
    "special_defence": 75,
    "speed": 55
  },
  "catchRate": 60,
  "maleRatio": 0.5,
  "shoulderMountable": false,
  "baseExperienceYield": 175,
  "experienceGroup": "medium_fast",
  "eggCycles": 20,
  "eggGroups": [
    "field"
  ],
  "moves": [
    "1:covet",
    "1:faketears",
    "1:leer",
    "1:lick",
    "1:scratch",
    "8:furyswipes",
    "13:payback",
    "15:feintattack",
    "17:sweetscent",
    "22:slash",
    "25:playnice",
    "29:playrough",
    "35:scaryface",
    "41:rest",
    "41:snore",
    "48:highhorsepower",
    "56:thrash",
    "64:hammerarm",
    "tm:aerialace",
    "tm:attract",
    "tm:avalanche",
    "tm:bodyslam",
    "tm:brickbreak",
    "tm:bulkup",
    "tm:bulldoze",
    "tm:captivate",
    "tm:charm",
    "tm:closecombat",
    "tm:confide",
    "tm:crunch",
    "tm:cut",
    "tm:dig",
    "tm:doubleteam",
    "tm:earthquake",
    "tm:endure",
    "tm:facade",
    "tm:faketears",
    "tm:firepunch",
    "tm:fling",
    "tm:focusblast",
    "tm:focuspunch",
    "tm:frustration",
    "tm:gigaimpact",
    "tm:gunkshot",
    "tm:helpinghand",
    "tm:hiddenpower",
    "tm:honeclaws",
    "tm:hyperbeam",
    "tm:hypervoice",
    "tm:icepunch",
    "tm:lowkick",
    "tm:metalclaw",
    "tm:metronome",
    "tm:naturalgift",
    "tm:payback",
    "tm:playrough",
    "tm:poweruppunch",
    "tm:protect",
    "tm:raindance",
    "tm:rest",
    "tm:retaliate",
    "tm:return",
    "tm:roar",
    "tm:rockclimb",
    "tm:rockslide",
    "tm:rocksmash",
    "tm:rocktomb",
    "tm:round",
    "tm:scaryface",
    "tm:secretpower",
    "tm:seedbomb",
    "tm:shadowclaw",
    "tm:sleeptalk",
    "tm:smackdown",
    "tm:stompingtantrum",
    "tm:stoneedge",
    "tm:strength",
    "tm:substitute",
    "tm:sunnyday",
    "tm:swagger",
    "tm:swift",
    "tm:swordsdance",
    "tm:takedown",
    "tm:taunt",
    "tm:terablast",
    "tm:thief",
    "tm:thunderpunch",
    "tm:torment",
    "tm:toxic",
    "tm:trailblaze",
    "tm:workup",
    "tutor:attract",
    "tutor:bodyslam",
    "tutor:counter",
    "tutor:covet",
    "tutor:curse",
    "tutor:cut",
    "tutor:defensecurl",
    "tutor:dig",
    "tutor:doubleedge",
    "tutor:doubleteam",
    "tutor:dynamicpunch",
    "tutor:earthquake",
    "tutor:endure",
    "tutor:feintattack",
    "tutor:firepunch",
    "tutor:focuspunch",
    "tutor:frustration",
    "tutor:furycutter",
    "tutor:furyswipes",
    "tutor:gunkshot",
    "tutor:headbutt",
    "tutor:hiddenpower",
    "tutor:hyperbeam",
    "tutor:hypervoice",
    "tutor:icepunch",
    "tutor:laserfocus",
    "tutor:lastresort",
    "tutor:leer",
    "tutor:lick",
    "tutor:lowkick",
    "tutor:megakick",
    "tutor:megapunch",
    "tutor:metronome",
    "tutor:mimic",
    "tutor:mudslap",
    "tutor:protect",
    "tutor:rest",
    "tutor:return",
    "tutor:roar",
    "tutor:rockslide",
    "tutor:rocksmash",
    "tutor:rollout",
    "tutor:scratch",
    "tutor:seedbomb",
    "tutor:seismictoss",
    "tutor:slash",
    "tutor:sleeptalk",
    "tutor:snore",
    "tutor:stompingtantrum",
    "tutor:strength",
    "tutor:substitute",
    "tutor:sunnyday",
    "tutor:superpower",
    "tutor:swagger",
    "tutor:swift",
    "tutor:swordsdance",
    "tutor:thief",
    "tutor:thrash",
    "tutor:throatchop",
    "tutor:thunderpunch",
    "tutor:toxic",
    "tutor:uproar",
    "tutor:zapcannon"
  ],
  "labels": [
    "gen2"
  ],
  "pokedex": [
    "cobblemon.species.ursaring.desc"
  ],
  "preEvolution": "teddiursa",
  "evolutions": [
    {
      "id": "ursaring_ursaluna",
      "variant": "item_interact",
      "result": "ursaluna",
      "consumeHeldItem": false,
      "learnableMoves": [],
      "requirements": [
        {
          "variant": "moon_phase",
          "moonPhase": "FULL_MOON"
        },
        {
          "variant": "time_range",
          "range": "night"
        }
      ],
      "requiredContext": "cobblemon:peat_block"
    }
  ],
  "baseScale": 1,
  "hitbox": {
    "width": 1,
    "height": 1,
    "fixed": false
  },
  "baseFriendship": 70,
  "evYield": {
    "hp": 0,
    "attack": 2,
    "defence": 0,
    "special_attack": 0,
    "special_defence": 0,
    "speed": 0
  },
  "height": 18,
  "weight": 1258,
  "aspects": [],
  "cannotDynamax": false
}