{
  "name": "Tyrunt",
  "nationalPokedexNumber": 696,
  "primaryType": "rock",
  "secondaryType": "dragon",
  "abilities": [
    "strongjaw",
    "h:sturdy"
  ],
  "baseStats": {
    "hp": 58,
    "attack": 89,
    "defence": 77,
    "special_attack": 45,
    "special_defence": 45,
    "speed": 48
  },
  "catchRate": 45,
  "maleRatio": 0.875,
  "shoulderMountable": false,
  "baseExperienceYield": 72,
  "experienceGroup": "medium_fast",
  "eggCycles": 30,
  "eggGroups": [
    "monster",
    "dragon"
  ],
  "moves": [
    "1:tackle",
    "1:tailwhip",
    "4:roar",
    "8:ancientpower",
    "12:bide",
    "12:charm",
    "15:stealthrock",
    "16:bite",
    "20:dragontail",
    "24:stomp",
    "28:rockslide",
    "32:crunch",
    "36:dragonclaw",
    "40:thrash",
    "44:earthquake",
    "48:horndrill",
    "egg:curse",
    "egg:dragondance",
    "egg:firefang",
    "egg:icefang",
    "egg:poisonfang",
    "egg:rockpolish",
    "egg:rockthrow",
    "egg:thunderfang",
    "tm:aerialace",
    "tm:assurance",
    "tm:attract",
    "tm:bodyslam",
    "tm:brickbreak",
    "tm:bulldoze",
    "tm:charm",
    "tm:closecombat",
    "tm:confide",
    "tm:crunch",
    "tm:darkpulse",
    "tm:dig",
    "tm:doubleteam",
    "tm:dragonclaw",
    "tm:dragondance",
    "tm:dragonpulse",
    "tm:dragontail",
    "tm:earthpower",
    "tm:earthquake",
    "tm:endure",
    "tm:facade",
    "tm:firefang",
    "tm:frustration",
    "tm:hiddenpower",
    "tm:honeclaws",
    "tm:hypervoice",
    "tm:icefang",
    "tm:irondefense",
    "tm:ironhead",
    "tm:irontail",
    "tm:outrage",
    "tm:playrough",
    "tm:protect",
    "tm:psychicfangs",
    "tm:rest",
    "tm:return",
    "tm:roar",
    "tm:rockblast",
    "tm:rockpolish",
    "tm:rockslide",
    "tm:rocksmash",
    "tm:rocktomb",
    "tm:round",
    "tm:sandstorm",
    "tm:scaryface",
    "tm:secretpower",
    "tm:sleeptalk",
    "tm:snore",
    "tm:stealthrock",
    "tm:stompingtantrum",
    "tm:stoneedge",
    "tm:strength",
    "tm:substitute",
    "tm:sunnyday",
    "tm:superpower",
    "tm:swagger",
    "tm:thunderfang",
    "tm:toxic",
    "tm:zenheadbutt",
    "tutor:block",
    "tutor:dracometeor",
    "tutor:dragonpulse",
    "tutor:earthpower",
    "tutor:hypervoice",
    "tutor:irondefense",
    "tutor:ironhead",
    "tutor:irontail",
    "tutor:lashout",
    "tutor:meteorbeam",
    "tutor:outrage",
    "tutor:roar",
    "tutor:scaleshot",
    "tutor:snore",
    "tutor:stealthrock",
    "tutor:stomp",
    "tutor:stompingtantrum",
    "tutor:superpower",
    "tutor:tackle",
    "tutor:tailwhip",
    "tutor:zenheadbutt"
  ],
  "labels": [
    "gen6"
  ],
  "pokedex": [
    "cobblemon.species.tyrunt.desc"
  ],
  "evolutions": [
    {
      "id": "tyrunt_tyrantrum",
      "variant": "level_up",
      "result": "tyrantrum",
      "consumeHeldItem": false,
      "learnableMoves": [],
      "requirements": [
        {
          "variant": "level",
          "minLevel": 39
        },
        {
          "variant": "time_range",
          "range": "day"
        }
      ]
    }
  ],
  "baseScale": 1,
  "hitbox": {
    "width": 1,
    "height": 1,
    "fixed": false
  },
  "baseFriendship": 50,
  "evYield": {
    "hp": 0,
    "attack": 1,
    "defence": 0,
    "special_attack": 0,
    "special_defence": 0,
    "speed": 0
  },
  "height": 8,
  "weight": 260,
  "aspects": [],
  "cannotDynamax": false
}