{
  "name": "Virizion",
  "nationalPokedexNumber": 640,
  "primaryType": "grass",
  "secondaryType": "fighting",
  "abilities": [
    "justified"
  ],
  "baseStats": {
    "hp": 91,
    "attack": 90,
    "defence": 72,
    "special_attack": 90,
    "special_defence": 129,
    "speed": 108
  },
  "catchRate": 3,
  "maleRatio": -1,
  "shoulderMountable": false,
  "baseExperienceYield": 290,
  "experienceGroup": "slow",
  "eggCycles": 80,
  "eggGroups": [
    "undiscovered"
  ],
  "moves": [
    "1:helpinghand",
    "1:leer",
    "1:quickattack",
    "1:workup",
    "7:magicalleaf",
    "14:quickguard",
    "21:doublekick",
    "28:retaliate",
    "35:gigadrain",
    "42:takedown",
    "49:sacredsword",
    "56:swordsdance",
    "63:leafblade",
    "70:closecombat",
    "tm:aerialace",
    "tm:airslash",
    "tm:bounce",
    "tm:brickbreak",
    "tm:calmmind",
    "tm:closecombat",
    "tm:confide",
    "tm:cut",
    "tm:doubleteam",
    "tm:endure",
    "tm:energyball",
    "tm:facade",
    "tm:falseswipe",
    "tm:flash",
    "tm:focusblast",
    "tm:frustration",
    "tm:gigadrain",
    "tm:gigaimpact",
    "tm:grassknot",
    "tm:helpinghand",
    "tm:hiddenpower",
    "tm:hyperbeam",
    "tm:leafblade",
    "tm:leafstorm",
    "tm:lightscreen",
    "tm:magicalleaf",
    "tm:megahorn",
    "tm:naturepower",
    "tm:protect",
    "tm:psychup",
    "tm:reflect",
    "tm:rest",
    "tm:retaliate",
    "tm:return",
    "tm:revenge",
    "tm:reversal",
    "tm:roar",
    "tm:rocksmash",
    "tm:round",
    "tm:safeguard",
    "tm:secretpower",
    "tm:seedbomb",
    "tm:sleeptalk",
    "tm:smartstrike",
    "tm:snore",
    "tm:solarbeam",
    "tm:solarblade",
    "tm:stoneedge",
    "tm:strength",
    "tm:substitute",
    "tm:sunnyday",
    "tm:superpower",
    "tm:swagger",
    "tm:swift",
    "tm:swordsdance",
    "tm:taunt",
    "tm:toxic",
    "tm:workup",
    "tm:xscissor",
    "tm:zenheadbutt",
    "tutor:block",
    "tutor:bounce",
    "tutor:closecombat",
    "tutor:coaching",
    "tutor:gigadrain",
    "tutor:grassyglide",
    "tutor:helpinghand",
    "tutor:laserfocus",
    "tutor:leafblade",
    "tutor:quickguard",
    "tutor:retaliate",
    "tutor:sacredsword",
    "tutor:seedbomb",
    "tutor:sleeptalk",
    "tutor:snore",
    "tutor:superpower",
    "tutor:swordsdance",
    "tutor:synthesis",
    "tutor:workup",
    "tutor:worryseed",
    "tutor:zenheadbutt"
  ],
  "labels": [
    "gen5",
    "legendary"
  ],
  "pokedex": [
    "cobblemon.species.virizion.desc"
  ],
  "evolutions": [],
  "baseScale": 1,
  "hitbox": {
    "width": 1,
    "height": 1,
    "fixed": false
  },
  "baseFriendship": 35,
  "evYield": {
    "hp": 0,
    "attack": 0,
    "defence": 0,
    "special_attack": 0,
    "special_defence": 3,
    "speed": 0
  },
  "height": 20,
  "weight": 2000,
  "aspects": [],
  "cannotDynamax": false
}