{
  "name": "Woobat",
  "nationalPokedexNumber": 527,
  "primaryType": "psychic",
  "secondaryType": "flying",
  "abilities": [
    "unaware",
    "klutz",
    "h:simple"
  ],
  "baseStats": {
    "hp": 65,
    "attack": 45,
    "defence": 43,
    "special_attack": 55,
    "special_defence": 43,
    "speed": 72
  },
  "catchRate": 190,
  "maleRatio": 0.5,
  "shoulderMountable": false,
  "baseExperienceYield": 65,
  "experienceGroup": "medium_fast",
  "eggCycles": 15,
  "eggGroups": [
    "flying",
    "field"
  ],
  "moves": [
    "1:attract",
    "1:gust",
    "4:odorsleuth",
    "5:confusion",
    "10:endeavor",
    "15:aircutter",
    "15:heartstamp",
    "20:imprison",
    "25:assurance",
    "30:amnesia",
    "35:airslash",
    "40:psychic",
    "45:calmmind",
    "50:futuresight",
    "55:simplebeam",
    "egg:captivate",
    "egg:charm",
    "egg:faketears",
    "egg:flatter",
    "egg:helpinghand",
    "egg:knockoff",
    "egg:psychoshift",
    "egg:roost",
    "egg:storedpower",
    "egg:supersonic",
    "egg:synchronoise",
    "egg:venomdrench",
    "tm:acrobatics",
    "tm:aerialace",
    "tm:airslash",
    "tm:allyswitch",
    "tm:amnesia",
    "tm:assurance",
    "tm:attract",
    "tm:batonpass",
    "tm:calmmind",
    "tm:chargebeam",
    "tm:charm",
    "tm:confide",
    "tm:doubleteam",
    "tm:dreameater",
    "tm:embargo",
    "tm:endure",
    "tm:energyball",
    "tm:facade",
    "tm:faketears",
    "tm:flash",
    "tm:fly",
    "tm:frustration",
    "tm:futuresight",
    "tm:gigadrain",
    "tm:gyroball",
    "tm:heatwave",
    "tm:helpinghand",
    "tm:hiddenpower",
    "tm:imprison",
    "tm:lightscreen",
    "tm:nastyplot",
    "tm:pluck",
    "tm:protect",
    "tm:psychic",
    "tm:psychocut",
    "tm:psychup",
    "tm:psyshock",
    "tm:raindance",
    "tm:reflect",
    "tm:rest",
    "tm:return",
    "tm:roost",
    "tm:round",
    "tm:safeguard",
    "tm:secretpower",
    "tm:shadowball",
    "tm:skillswap",
    "tm:sleeptalk",
    "tm:snore",
    "tm:speedswap",
    "tm:steelwing",
    "tm:storedpower",
    "tm:substitute",
    "tm:swagger",
    "tm:swift",
    "tm:taunt",
    "tm:telekinesis",
    "tm:thief",
    "tm:thunderwave",
    "tm:torment",
    "tm:toxic",
    "tm:trick",
    "tm:trickroom",
    "tm:uproar",
    "tm:uturn",
    "tm:venomdrench",
    "tm:zenheadbutt",
    "tutor:afteryou",
    "tutor:allyswitch",
    "tutor:defog",
    "tutor:dualwingbeat",
    "tutor:endeavor",
    "tutor:expandingforce",
    "tutor:gigadrain",
    "tutor:heatwave",
    "tutor:helpinghand",
    "tutor:knockoff",
    "tutor:magiccoat",
    "tutor:roost",
    "tutor:shockwave",
    "tutor:signalbeam",
    "tutor:skillswap",
    "tutor:sleeptalk",
    "tutor:snore",
    "tutor:superfang",
    "tutor:tailwind",
    "tutor:telekinesis",
    "tutor:trick",
    "tutor:uproar",
    "tutor:zenheadbutt"
  ],
  "labels": [
    "gen5"
  ],
  "pokedex": [
    "cobblemon.species.woobat.desc"
  ],
  "evolutions": [
    {
      "id": "woobat_swoobat",
      "variant": "level_up",
      "result": "swoobat",
      "consumeHeldItem": false,
      "learnableMoves": [],
      "requirements": [
        {
          "variant": "friendship",
          "amount": 160
        }
      ]
    }
  ],
  "baseScale": 1,
  "hitbox": {
    "width": 1,
    "height": 1,
    "fixed": false
  },
  "baseFriendship": 50,
  "evYield": {
    "hp": 0,
    "attack": 0,
    "defence": 0,
    "special_attack": 0,
    "special_defence": 0,
    "speed": 1
  },
  "height": 4,
  "weight": 21,
  "aspects": [],
  "cannotDynamax": false
}