{
  "implemented": true,
  "name": "Chimchar",
  "nationalPokedexNumber": 390,
  "primaryType": "fire",
  "abilities": [
    "blaze",
    "h:ironfist"
  ],
  "baseStats": {
    "hp": 44,
    "attack": 58,
    "defence": 44,
    "special_attack": 58,
    "special_defence": 44,
    "speed": 61
  },
  "catchRate": 45,
  "maleRatio": 0.875,
  "shoulderMountable": false,
  "baseExperienceYield": 62,
  "experienceGroup": "medium_slow",
  "eggCycles": 20,
  "eggGroups": [
    "field",
    "human_like"
  ],
  "drops": {
    "amount": "1",
    "entries": [
      {
        "item": "cobblemon:charcoal_stick",
        "percentage": 5
      }
    ]
  },
  "moves": [
    "1:leer",
    "1:scratch",
    "7:ember",
    "9:taunt",
    "15:furyswipes",
    "17:flamewheel",
    "23:nastyplot",
    "25:torment",
    "31:facade",
    "33:firespin",
    "39:acrobatics",
    "39:slackoff",
    "41:flamethrower",
    "41:slackoff",
    "47:flamethrower",
    "egg:assist",
    "egg:blazekick",
    "egg:counter",
    "egg:doublekick",
    "egg:encore",
    "egg:fakeout",
    "egg:firepunch",
    "egg:focusenergy",
    "egg:focuspunch",
    "egg:heatwave",
    "egg:helpinghand",
    "egg:poweruppunch",
    "egg:quickguard",
    "egg:submission",
    "egg:thunderpunch",
    "tm:acrobatics",
    "tm:aerialace",
    "tm:attract",
    "tm:brickbreak",
    "tm:bulkup",
    "tm:captivate",
    "tm:confide",
    "tm:cut",
    "tm:dig",
    "tm:doubleteam",
    "tm:endure",
    "tm:facade",
    "tm:fireblast",
    "tm:flamecharge",
    "tm:flamethrower",
    "tm:fling",
    "tm:focuspunch",
    "tm:frustration",
    "tm:grassknot",
    "tm:hiddenpower",
    "tm:honeclaws",
    "tm:incinerate",
    "tm:irontail",
    "tm:lowsweep",
    "tm:naturalgift",
    "tm:overheat",
    "tm:poweruppunch",
    "tm:protect",
    "tm:rest",
    "tm:return",
    "tm:rockclimb",
    "tm:rocksmash",
    "tm:round",
    "tm:secretpower",
    "tm:shadowclaw",
    "tm:sleeptalk",
    "tm:stealthrock",
    "tm:strength",
    "tm:substitute",
    "tm:sunnyday",
    "tm:swagger",
    "tm:swordsdance",
    "tm:taunt",
    "tm:torment",
    "tm:toxic",
    "tm:uturn",
    "tm:willowisp",
    "tm:workup",
    "tutor:covet",
    "tutor:ember",
    "tutor:endeavor",
    "tutor:fakeout",
    "tutor:firepledge",
    "tutor:firepunch",
    "tutor:flamethrower",
    "tutor:focuspunch",
    "tutor:grassknot",
    "tutor:gunkshot",
    "tutor:headbutt",
    "tutor:heatwave",
    "tutor:helpinghand",
    "tutor:irontail",
    "tutor:leer",
    "tutor:lowkick",
    "tutor:mudslap",
    "tutor:roleplay",
    "tutor:rollout",
    "tutor:scratch",
    "tutor:sleeptalk",
    "tutor:snore",
    "tutor:stealthrock",
    "tutor:swift",
    "tutor:taunt",
    "tutor:thunderpunch",
    "tutor:uproar",
    "tutor:vacuumwave"
  ],
  "labels": [
    "gen4"
  ],
  "pokedex": [
    "cobblemon.species.chimchar.desc"
  ],
  "evolutions": [
    {
      "id": "chimchar_monferno",
      "variant": "level_up",
      "result": "monferno",
      "consumeHeldItem": false,
      "learnableMoves": [],
      "requirements": [
        {
          "variant": "level",
          "minLevel": 14
        }
      ]
    }
  ],
  "baseScale": 0.6,
  "hitbox": {
    "width": 0.75,
    "height": 1.35,
    "fixed": false
  },
  "baseFriendship": 70,
  "evYield": {
    "hp": 0,
    "attack": 0,
    "defence": 0,
    "special_attack": 0,
    "special_defence": 0,
    "speed": 1
  },
  "height": 5,
  "weight": 62,
  "aspects": [],
  "cannotDynamax": false
}