{
  "name": "Drifloon",
  "nationalPokedexNumber": 425,
  "primaryType": "ghost",
  "secondaryType": "flying",
  "abilities": [
    "aftermath",
    "unburden",
    "h:flareboost"
  ],
  "baseStats": {
    "hp": 90,
    "attack": 50,
    "defence": 34,
    "special_attack": 60,
    "special_defence": 44,
    "speed": 70
  },
  "catchRate": 125,
  "maleRatio": 0.5,
  "shoulderMountable": false,
  "baseExperienceYield": 70,
  "experienceGroup": "fluctuating",
  "eggCycles": 30,
  "eggGroups": [
    "amorphous"
  ],
  "moves": [
    "1:astonish",
    "1:constrict",
    "1:minimize",
    "4:astonish",
    "4:gust",
    "6:astonish",
    "8:focusenergy",
    "8:gust",
    "11:gust",
    "12:payback",
    "13:focusenergy",
    "14:focusenergy",
    "16:hex",
    "16:payback",
    "17:payback",
    "20:ominouswind",
    "20:shadowball",
    "22:hex",
    "22:stockpile",
    "24:spitup",
    "24:stockpile",
    "24:swallow",
    "25:stockpile",
    "27:hex",
    "27:spitup",
    "27:stockpile",
    "27:swallow",
    "29:selfdestruct",
    "30:ominouswind",
    "30:spitup",
    "30:swallow",
    "32:destinybond",
    "32:spitup",
    "32:swallow",
    "33:batonpass",
    "33:ominouswind",
    "36:batonpass",
    "36:shadowball",
    "38:batonpass",
    "38:shadowball",
    "40:amnesia",
    "40:tailwind",
    "43:explosion",
    "43:shadowball",
    "44:batonpass",
    "44:explosion",
    "46:explosion",
    "50:explosion",
    "egg:bodyslam",
    "egg:clearsmog",
    "egg:defog",
    "egg:destinybond",
    "egg:disable",
    "egg:haze",
    "egg:hypnosis",
    "egg:memento",
    "egg:tailwind",
    "egg:weatherball",
    "tm:acrobatics",
    "tm:aerialace",
    "tm:aircutter",
    "tm:allyswitch",
    "tm:amnesia",
    "tm:attract",
    "tm:batonpass",
    "tm:bodyslam",
    "tm:brutalswing",
    "tm:calmmind",
    "tm:captivate",
    "tm:chargebeam",
    "tm:confide",
    "tm:cut",
    "tm:defog",
    "tm:doubleteam",
    "tm:dreameater",
    "tm:embargo",
    "tm:endure",
    "tm:explosion",
    "tm:facade",
    "tm:flash",
    "tm:fly",
    "tm:focusenergy",
    "tm:frustration",
    "tm:gyroball",
    "tm:helpinghand",
    "tm:hex",
    "tm:hiddenpower",
    "tm:icywind",
    "tm:imprison",
    "tm:naturalgift",
    "tm:nightshade",
    "tm:payback",
    "tm:phantomforce",
    "tm:protect",
    "tm:psybeam",
    "tm:psychic",
    "tm:psychup",
    "tm:raindance",
    "tm:recycle",
    "tm:rest",
    "tm:return",
    "tm:round",
    "tm:secretpower",
    "tm:selfdestruct",
    "tm:shadowball",
    "tm:shockwave",
    "tm:silverwind",
    "tm:skillswap",
    "tm:sleeptalk",
    "tm:snore",
    "tm:storedpower",
    "tm:substitute",
    "tm:sunnyday",
    "tm:swagger",
    "tm:swift",
    "tm:tailwind",
    "tm:telekinesis",
    "tm:terablast",
    "tm:thief",
    "tm:thunder",
    "tm:thunderbolt",
    "tm:thunderwave",
    "tm:toxic",
    "tm:trick",
    "tm:trickroom",
    "tm:weatherball",
    "tm:willowisp",
    "tutor:aircutter",
    "tutor:allyswitch",
    "tutor:bind",
    "tutor:defog",
    "tutor:hypnosis",
    "tutor:icywind",
    "tutor:knockoff",
    "tutor:magiccoat",
    "tutor:minimize",
    "tutor:mudslap",
    "tutor:ominouswind",
    "tutor:painsplit",
    "tutor:recycle",
    "tutor:rollout",
    "tutor:shockwave",
    "tutor:skillswap",
    "tutor:sleeptalk",
    "tutor:snore",
    "tutor:spite",
    "tutor:suckerpunch",
    "tutor:swift",
    "tutor:tailwind",
    "tutor:telekinesis",
    "tutor:trick"
  ],
  "labels": [
    "gen4"
  ],
  "pokedex": [
    "cobblemon.species.drifloon.desc"
  ],
  "evolutions": [
    {
      "id": "drifloon_drifblim",
      "variant": "level_up",
      "result": "drifblim",
      "consumeHeldItem": false,
      "learnableMoves": [
        "phantomforce"
      ],
      "requirements": [
        {
          "variant": "level",
          "minLevel": 28
        }
      ]
    }
  ],
  "baseScale": 1,
  "hitbox": {
    "width": 1,
    "height": 1,
    "fixed": false
  },
  "baseFriendship": 50,
  "evYield": {
    "hp": 1,
    "attack": 0,
    "defence": 0,
    "special_attack": 0,
    "special_defence": 0,
    "speed": 0
  },
  "height": 4,
  "weight": 12,
  "aspects": [],
  "cannotDynamax": false
}