{
  "implemented": true,
  "name": "Lopunny",
  "nationalPokedexNumber": 428,
  "primaryType": "normal",
  "abilities": [
    "cutecharm",
    "klutz",
    "h:limber"
  ],
  "baseStats": {
    "hp": 65,
    "attack": 76,
    "defence": 84,
    "special_attack": 54,
    "special_defence": 96,
    "speed": 105
  },
  "catchRate": 60,
  "maleRatio": 0.5,
  "shoulderMountable": false,
  "forms": [
    {
      "name": "Mega",
      "primaryType": "normal",
      "secondaryType": "fighting",
      "abilities": [
        "scrappy"
      ],
      "baseStats": {
        "hp": 65,
        "attack": 136,
        "defence": 94,
        "special_attack": 54,
        "special_defence": 96,
        "speed": 135
      },
      "catchRate": 60,
      "maleRatio": 0.5,
      "baseExperienceYield": 168,
      "baseFriendship": 140,
      "evYield": {
        "hp": 0,
        "attack": 0,
        "defence": 0,
        "special_attack": 0,
        "special_defence": 0,
        "speed": 2
      },
      "experienceGroup": "medium_fast",
      "eggCycles": 20,
      "eggGroups": [
        "field",
        "human_like"
      ],
      "labels": [
        "gen6",
        "mega"
      ],
      "aspects": [
        "mega"
      ],
      "height": 13,
      "weight": 283,
      "evolutions": [],
      "cannotDynamax": false,
      "battleOnly": true
    }
  ],
  "baseExperienceYield": 168,
  "experienceGroup": "medium_fast",
  "eggCycles": 20,
  "eggGroups": [
    "field",
    "human_like"
  ],
  "drops": {
    "amount": "3",
    "entries": [
      {
        "item": "minecraft:carrot",
        "quantityRange": "1-2",
        "percentage": 66
      },
      {
        "item": "minecraft:rabbit_hide",
        "percentage": 10
      },
      {
        "item": "minecraft:rabbit_foot",
        "percentage": 5
      }
    ]
  },
  "moves": [
    "1:babydolleyes",
    "1:bounce",
    "1:defensecurl",
    "1:foresight",
    "1:healingwish",
    "1:magiccoat",
    "1:mirrorcoat",
    "1:pound",
    "1:return",
    "1:rototiller",
    "1:splash",
    "6:endure",
    "12:afteryou",
    "13:babydolleyes",
    "13:return",
    "16:quickattack",
    "20:doublekick",
    "23:jumpkick",
    "24:charm",
    "26:batonpass",
    "28:batonpass",
    "32:headbutt",
    "33:agility",
    "36:agility",
    "36:dizzypunch",
    "40:entrainment",
    "43:afteryou",
    "43:charm",
    "44:flatter",
    "46:bounce",
    "46:charm",
    "48:bounce",
    "52:healingwish",
    "53:entrainment",
    "53:healingwish",
    "56:bounce",
    "56:highjumpkick",
    "63:healingwish",
    "66:highjumpkick",
    "tm:acrobatics",
    "tm:agility",
    "tm:assurance",
    "tm:attract",
    "tm:aurasphere",
    "tm:batonpass",
    "tm:blizzard",
    "tm:bounce",
    "tm:brutalswing",
    "tm:captivate",
    "tm:chargebeam",
    "tm:charm",
    "tm:closecombat",
    "tm:confide",
    "tm:cosmicpower",
    "tm:cut",
    "tm:dig",
    "tm:doubleteam",
    "tm:drainpunch",
    "tm:encore",
    "tm:endure",
    "tm:facade",
    "tm:faketears",
    "tm:firepunch",
    "tm:fling",
    "tm:focusblast",
    "tm:focuspunch",
    "tm:frustration",
    "tm:gigaimpact",
    "tm:grassknot",
    "tm:helpinghand",
    "tm:hiddenpower",
    "tm:hyperbeam",
    "tm:hypervoice",
    "tm:icebeam",
    "tm:icepunch",
    "tm:irontail",
    "tm:lowkick",
    "tm:lowsweep",
    "tm:megakick",
    "tm:megapunch",
    "tm:naturalgift",
    "tm:payback",
    "tm:playrough",
    "tm:poweruppunch",
    "tm:protect",
    "tm:raindance",
    "tm:rest",
    "tm:retaliate",
    "tm:return",
    "tm:reversal",
    "tm:rocksmash",
    "tm:round",
    "tm:secretpower",
    "tm:shadowball",
    "tm:shockwave",
    "tm:sleeptalk",
    "tm:snore",
    "tm:solarbeam",
    "tm:strength",
    "tm:substitute",
    "tm:sunnyday",
    "tm:swagger",
    "tm:swift",
    "tm:thunder",
    "tm:thunderbolt",
    "tm:thunderpunch",
    "tm:thunderwave",
    "tm:toxic",
    "tm:uproar",
    "tm:uturn",
    "tm:waterpulse",
    "tm:workup",
    "tutor:afteryou",
    "tutor:bounce",
    "tutor:covet",
    "tutor:drainpunch",
    "tutor:endeavor",
    "tutor:firepunch",
    "tutor:focuspunch",
    "tutor:furycutter",
    "tutor:headbutt",
    "tutor:healbell",
    "tutor:helpinghand",
    "tutor:hypervoice",
    "tutor:icepunch",
    "tutor:irontail",
    "tutor:laserfocus",
    "tutor:lastresort",
    "tutor:lowkick",
    "tutor:magiccoat",
    "tutor:mudslap",
    "tutor:shockwave",
    "tutor:sleeptalk",
    "tutor:snore",
    "tutor:swift",
    "tutor:thunderpunch",
    "tutor:tripleaxel",
    "tutor:uproar",
    "tutor:waterpulse"
  ],
  "labels": [
    "gen4"
  ],
  "pokedex": [
    "cobblemon.species.lopunny.desc"
  ],
  "preEvolution": "buneary",
  "evolutions": [],
  "baseScale": 0.5,
  "hitbox": {
    "width": 1.4,
    "height": 3,
    "fixed": false
  },
  "baseFriendship": 140,
  "evYield": {
    "hp": 0,
    "attack": 0,
    "defence": 0,
    "special_attack": 0,
    "special_defence": 0,
    "speed": 2
  },
  "height": 12,
  "weight": 333,
  "aspects": [],
  "cannotDynamax": false
}