{
  "name": "Basculegion",
  "nationalPokedexNumber": 902,
  "primaryType": "water",
  "secondaryType": "ghost",
  "abilities": [
    "swiftswim",
    "adaptability",
    "h:moldbreaker"
  ],
  "baseStats": {
    "hp": 120,
    "attack": 112,
    "defence": 65,
    "special_attack": 80,
    "special_defence": 75,
    "speed": 78
  },
  "catchRate": 135,
  "maleRatio": 1,
  "shoulderMountable": false,
  "baseExperienceYield": 265,
  "baseFriendship": 0,
  "evYield": {
    "hp": 2,
    "attack": 0,
    "defence": 0,
    "special_attack": 0,
    "special_defence": 0,
    "speed": 0
  },
  "experienceGroup": "medium_fast",
  "eggCycles": 0,
  "eggGroups": [
    "water_2"
  ],
  "moves": [
    "1:phantomforce",
    "1:shadowball",
    "1:tailwhip",
    "1:watergun",
    "4:tackle",
    "8:flail",
    "12:aquajet",
    "16:bite",
    "20:scaryface",
    "24:headbutt",
    "28:soak",
    "32:crunch",
    "36:takedown",
    "40:uproar",
    "44:wavecrash",
    "48:thrash",
    "52:doubleedge",
    "56:headsmash",
    "egg:endeavor",
    "egg:lastrespects",
    "tm:agility",
    "tm:blizzard",
    "tm:chillingwater",
    "tm:confuseray",
    "tm:crunch",
    "tm:facade",
    "tm:gigaimpact",
    "tm:hex",
    "tm:hydropump",
    "tm:hyperbeam",
    "tm:icebeam",
    "tm:icefang",
    "tm:icywind",
    "tm:liquidation",
    "tm:mudshot",
    "tm:nightshade",
    "tm:outrage",
    "tm:phantomforce",
    "tm:protect",
    "tm:psychicfangs",
    "tm:raindance",
    "tm:rest",
    "tm:scaryface",
    "tm:shadowball",
    "tm:sleeptalk",
    "tm:snowscape",
    "tm:substitute",
    "tm:surf",
    "tm:takedown",
    "tm:terablast",
    "tm:waterfall",
    "tm:waterpulse"
  ],
  "labels": [
    "gen8"
  ],
  "pokedex": [
    "cobblemon.species.basculegion.desc"
  ],
  "height": 30,
  "weight": 1100,
  "preEvolution": "basculin form=whitestriped",
  "evolutions": [],
  "forms": [
    {
      "name": "F",
      "primaryType": "water",
      "secondaryType": "ghost",
      "abilities": [
        "swiftswim",
        "adaptability",
        "h:moldbreaker"
      ],
      "baseStats": {
        "hp": 120,
        "attack": 92,
        "defence": 65,
        "special_attack": 100,
        "special_defence": 75,
        "speed": 78
      },
      "catchRate": 135,
      "maleRatio": 0,
      "baseExperienceYield": 265,
      "baseFriendship": 0,
      "evYield": {
        "hp": 2,
        "attack": 0,
        "defence": 0,
        "special_attack": 0,
        "special_defence": 0,
        "speed": 0
      },
      "experienceGroup": "medium_fast",
      "eggCycles": 0,
      "eggGroups": [
        "water_2"
      ],
      "moves": [
        "1:phantomforce",
        "1:shadowball",
        "1:tailwhip",
        "1:watergun",
        "4:tackle",
        "8:flail",
        "12:aquajet",
        "16:bite",
        "20:scaryface",
        "24:headbutt",
        "28:soak",
        "32:crunch",
        "36:takedown",
        "40:uproar",
        "44:wavecrash",
        "48:thrash",
        "52:doubleedge",
        "56:headsmash",
        "egg:endeavor",
        "egg:lastrespects",
        "tm:agility",
        "tm:blizzard",
        "tm:chillingwater",
        "tm:confuseray",
        "tm:crunch",
        "tm:facade",
        "tm:gigaimpact",
        "tm:hex",
        "tm:hydropump",
        "tm:hyperbeam",
        "tm:icebeam",
        "tm:icefang",
        "tm:icywind",
        "tm:liquidation",
        "tm:mudshot",
        "tm:nightshade",
        "tm:outrage",
        "tm:phantomforce",
        "tm:protect",
        "tm:psychicfangs",
        "tm:raindance",
        "tm:rest",
        "tm:scaryface",
        "tm:shadowball",
        "tm:sleeptalk",
        "tm:snowscape",
        "tm:substitute",
        "tm:surf",
        "tm:takedown",
        "tm:terablast",
        "tm:waterfall",
        "tm:waterpulse"
      ],
      "labels": [
        "gen8"
      ],
      "aspects": [
        "f"
      ],
      "height": 30,
      "weight": 1100,
      "preEvolution": "basculin form=whitestriped",
      "evolutions": [],
      "cannotDynamax": false,
      "battleOnly": false
    }
  ],
  "aspects": [],
  "cannotDynamax": false
}