{
  "implemented": true,
  "name": "Psyduck",
  "nationalPokedexNumber": 54,
  "primaryType": "water",
  "abilities": [
    "damp",
    "cloudnine",
    "h:swiftswim"
  ],
  "baseStats": {
    "hp": 50,
    "attack": 52,
    "defence": 48,
    "special_attack": 65,
    "special_defence": 50,
    "speed": 55
  },
  "catchRate": 190,
  "maleRatio": 0.5,
  "shoulderMountable": false,
  "baseExperienceYield": 64,
  "experienceGroup": "medium_fast",
  "eggCycles": 20,
  "eggGroups": [
    "water_1",
    "field"
  ],
  "behaviour": {
    "moving": {
      "swim": {
        "canSwimInWater": true,
        "canBreatheUnderwater": true
      }
    },
    "resting": {
      "canSleep": true,
      "willSleepOnBed": false,
      "depth": "normal",
      "light": "0-4"
    }
  },
  "drops": {
    "amount": "3",
    "entries": [
      {
        "item": "minecraft:feather",
        "percentage": 50
      },
      {
        "item": "minecraft:chicken"
      },
      {
        "item": "cobblemon:mystic_water",
        "percentage": 2.5
      }
    ]
  },
  "moves": [
    "1:scratch",
    "1:tailwhip",
    "1:watersport",
    "3:watergun",
    "6:confusion",
    "9:furyswipes",
    "12:waterpulse",
    "15:disable",
    "18:zenheadbutt",
    "21:screech",
    "24:aquatail",
    "27:soak",
    "30:psychup",
    "34:amnesia",
    "36:hydropump",
    "39:wonderroom",
    "egg:clearsmog",
    "egg:confuseray",
    "egg:crosschop",
    "egg:encore",
    "egg:foresight",
    "egg:futuresight",
    "egg:hypnosis",
    "egg:lightscreen",
    "egg:mudbomb",
    "egg:psybeam",
    "egg:psychic",
    "egg:refresh",
    "egg:secretpower",
    "egg:simplebeam",
    "egg:sleeptalk",
    "egg:synchronoise",
    "egg:yawn",
    "tm:aerialace",
    "tm:amnesia",
    "tm:attract",
    "tm:blizzard",
    "tm:bodyslam",
    "tm:brickbreak",
    "tm:brine",
    "tm:calmmind",
    "tm:captivate",
    "tm:chillingwater",
    "tm:confide",
    "tm:confuseray",
    "tm:dig",
    "tm:dive",
    "tm:doubleteam",
    "tm:encore",
    "tm:endure",
    "tm:facade",
    "tm:flash",
    "tm:fling",
    "tm:focuspunch",
    "tm:frustration",
    "tm:futuresight",
    "tm:hail",
    "tm:helpinghand",
    "tm:hiddenpower",
    "tm:honeclaws",
    "tm:hydropump",
    "tm:icebeam",
    "tm:icepunch",
    "tm:icywind",
    "tm:irontail",
    "tm:lightscreen",
    "tm:liquidation",
    "tm:lowkick",
    "tm:lowsweep",
    "tm:megakick",
    "tm:megapunch",
    "tm:metronome",
    "tm:mudshot",
    "tm:nastyplot",
    "tm:naturalgift",
    "tm:payday",
    "tm:poweruppunch",
    "tm:protect",
    "tm:psybeam",
    "tm:psychic",
    "tm:psychup",
    "tm:psyshock",
    "tm:raindance",
    "tm:rest",
    "tm:return",
    "tm:rocksmash",
    "tm:round",
    "tm:scald",
    "tm:screech",
    "tm:secretpower",
    "tm:shadowclaw",
    "tm:skillswap",
    "tm:sleeptalk",
    "tm:snore",
    "tm:strength",
    "tm:substitute",
    "tm:surf",
    "tm:swagger",
    "tm:swift",
    "tm:takedown",
    "tm:taunt",
    "tm:telekinesis",
    "tm:terablast",
    "tm:thief",
    "tm:toxic",
    "tm:trailblaze",
    "tm:waterfall",
    "tm:waterpulse",
    "tm:whirlpool",
    "tm:wonderroom",
    "tm:zenheadbutt",
    "tutor:amnesia",
    "tutor:aquatail",
    "tutor:attract",
    "tutor:bide",
    "tutor:blizzard",
    "tutor:bodyslam",
    "tutor:brickbreak",
    "tutor:brine",
    "tutor:bubblebeam",
    "tutor:calmmind",
    "tutor:confusion",
    "tutor:counter",
    "tutor:crosschop",
    "tutor:curse",
    "tutor:dig",
    "tutor:disable",
    "tutor:dive",
    "tutor:doubleedge",
    "tutor:doubleteam",
    "tutor:dynamicpunch",
    "tutor:encore",
    "tutor:endure",
    "tutor:facade",
    "tutor:flash",
    "tutor:focuspunch",
    "tutor:foresight",
    "tutor:frustration",
    "tutor:furyswipes",
    "tutor:futuresight",
    "tutor:headbutt",
    "tutor:hiddenpower",
    "tutor:hydropump",
    "tutor:hypnosis",
    "tutor:icebeam",
    "tutor:icepunch",
    "tutor:icywind",
    "tutor:irontail",
    "tutor:lightscreen",
    "tutor:megakick",
    "tutor:megapunch",
    "tutor:mimic",
    "tutor:mudslap",
    "tutor:mudsport",
    "tutor:payday",
    "tutor:protect",
    "tutor:psybeam",
    "tutor:psychic",
    "tutor:psychup",
    "tutor:rage",
    "tutor:raindance",
    "tutor:rest",
    "tutor:return",
    "tutor:rocksmash",
    "tutor:roleplay",
    "tutor:scald",
    "tutor:scratch",
    "tutor:screech",
    "tutor:seismictoss",
    "tutor:signalbeam",
    "tutor:skullbash",
    "tutor:sleeptalk",
    "tutor:snore",
    "tutor:strength",
    "tutor:submission",
    "tutor:substitute",
    "tutor:surf",
    "tutor:swagger",
    "tutor:swift",
    "tutor:tailwhip",
    "tutor:takedown",
    "tutor:telekinesis",
    "tutor:toxic",
    "tutor:waterfall",
    "tutor:watergun",
    "tutor:waterpulse",
    "tutor:watersport",
    "tutor:whirlpool",
    "tutor:wonderroom",
    "tutor:worryseed",
    "tutor:zenheadbutt"
  ],
  "labels": [
    "gen1"
  ],
  "pokedex": [
    "cobblemon.species.psyduck.desc"
  ],
  "evolutions": [
    {
      "id": "psyduck_golduck",
      "variant": "level_up",
      "result": "golduck",
      "consumeHeldItem": false,
      "learnableMoves": [],
      "requirements": [
        {
          "variant": "level",
          "minLevel": 33
        }
      ]
    }
  ],
  "baseScale": 0.8,
  "hitbox": {
    "width": 0.8,
    "height": 0.9,
    "fixed": false
  },
  "baseFriendship": 50,
  "evYield": {
    "hp": 0,
    "attack": 0,
    "defence": 0,
    "special_attack": 1,
    "special_defence": 0,
    "speed": 0
  },
  "height": 8,
  "weight": 196,
  "aspects": [],
  "cannotDynamax": false
}