{
  "name": "Roselia",
  "nationalPokedexNumber": 315,
  "primaryType": "grass",
  "secondaryType": "poison",
  "abilities": [
    "naturalcure",
    "poisonpoint",
    "h:leafguard"
  ],
  "baseStats": {
    "hp": 50,
    "attack": 60,
    "defence": 45,
    "special_attack": 100,
    "special_defence": 80,
    "speed": 65
  },
  "catchRate": 150,
  "maleRatio": 0.5,
  "shoulderMountable": false,
  "baseExperienceYield": 140,
  "experienceGroup": "medium_slow",
  "eggCycles": 20,
  "eggGroups": [
    "fairy",
    "grass"
  ],
  "moves": [
    "1:absorb",
    "1:growth",
    "1:stunspore",
    "1:worryseed",
    "5:megadrain",
    "7:poisonsting",
    "10:leechseed",
    "15:magicalleaf",
    "20:toxicspikes",
    "22:grasswhistle",
    "25:sweetscent",
    "30:gigadrain",
    "35:synthesis",
    "40:toxic",
    "45:petalblizzard",
    "50:aromatherapy",
    "55:ingrain",
    "60:petaldance",
    "egg:bulletseed",
    "egg:cottonspore",
    "egg:extrasensory",
    "egg:gigadrain",
    "egg:grasswhistle",
    "egg:leafstorm",
    "egg:lifedew",
    "egg:mindreader",
    "egg:naturalgift",
    "egg:pinmissile",
    "egg:powerwhip",
    "egg:razorleaf",
    "egg:seedbomb",
    "egg:sleeppowder",
    "egg:spikes",
    "egg:synthesis",
    "tm:attract",
    "tm:bodyslam",
    "tm:bulletseed",
    "tm:captivate",
    "tm:confide",
    "tm:cut",
    "tm:dazzlinggleam",
    "tm:doubleteam",
    "tm:endure",
    "tm:energyball",
    "tm:facade",
    "tm:flash",
    "tm:frustration",
    "tm:gigadrain",
    "tm:grassknot",
    "tm:hiddenpower",
    "tm:leafstorm",
    "tm:magicalleaf",
    "tm:naturalgift",
    "tm:naturepower",
    "tm:pinmissile",
    "tm:poisonjab",
    "tm:powerwhip",
    "tm:protect",
    "tm:psychup",
    "tm:raindance",
    "tm:rest",
    "tm:return",
    "tm:round",
    "tm:secretpower",
    "tm:seedbomb",
    "tm:shadowball",
    "tm:sleeptalk",
    "tm:sludgebomb",
    "tm:snore",
    "tm:solarbeam",
    "tm:spikes",
    "tm:substitute",
    "tm:sunnyday",
    "tm:swagger",
    "tm:swift",
    "tm:swordsdance",
    "tm:toxic",
    "tm:toxicspikes",
    "tm:uproar",
    "tm:venoshock",
    "tm:weatherball",
    "tutor:absorb",
    "tutor:bodyslam",
    "tutor:covet",
    "tutor:doubleedge",
    "tutor:endure",
    "tutor:furycutter",
    "tutor:gigadrain",
    "tutor:grasswhistle",
    "tutor:grassyglide",
    "tutor:growth",
    "tutor:leechseed",
    "tutor:magicalleaf",
    "tutor:mimic",
    "tutor:mudslap",
    "tutor:nightmare",
    "tutor:poisonsting",
    "tutor:psychup",
    "tutor:seedbomb",
    "tutor:sleeppowder",
    "tutor:sleeptalk",
    "tutor:snore",
    "tutor:substitute",
    "tutor:swagger",
    "tutor:sweetkiss",
    "tutor:swift",
    "tutor:swordsdance",
    "tutor:synthesis",
    "tutor:worryseed"
  ],
  "labels": [
    "gen3"
  ],
  "pokedex": [
    "cobblemon.species.roselia.desc"
  ],
  "preEvolution": "budew",
  "evolutions": [
    {
      "id": "roselia_roserade",
      "variant": "item_interact",
      "result": "roserade",
      "consumeHeldItem": false,
      "learnableMoves": [],
      "requirements": [],
      "requiredContext": "cobblemon:shiny_stone"
    }
  ],
  "baseScale": 1,
  "hitbox": {
    "width": 1,
    "height": 1,
    "fixed": false
  },
  "baseFriendship": 50,
  "evYield": {
    "hp": 0,
    "attack": 0,
    "defence": 0,
    "special_attack": 2,
    "special_defence": 0,
    "speed": 0
  },
  "height": 3,
  "weight": 20,
  "aspects": [],
  "cannotDynamax": false
}