{
  "display": {
    "icon": {
      "item": "cobblemon:link_cable",
	"nbt": "{CustomModelData:1}"
    },
    "title": {
      "translate": "advancements.cobblemon.root"
    },
    "description": {
      "translate": "advancements.cobblemon.root.description"
    },
    "background": "cobblemon:gui/advancements/backgrounds/cobblemon.png"
  },
  "criteria": {
    "picked_starter": {
      "trigger": "cobblemon:pick_starter"
    }
  }
}